<define-tag pagetitle>DLA-466-1 ocaml</define-tag>
<define-tag report_date>2016-5-11</define-tag>
<define-tag secrefs>CVE-2015-8869</define-tag>
<define-tag packages>ocaml</define-tag>
<define-tag isvulnerable>yes</define-tag>
<define-tag fixed>yes</define-tag>
<define-tag fixed-section>no</define-tag>

#use wml::debian::security

